estadistica,100
modelo,150
horrible,100
publicar,200
realizar,80
escribir,70
aprender,180
tienenque,90
modelar,120
simular,70
farmacocinética,30
farmacodinamia,50
covariada,140
parametros,160
estadística,200
experimento,150
no,30
si,30
